R Practice: Functions
…
Translate species code into common names

predator_comm_names <- left_join(predator_survey,
                                 species,
                                 by = c("species" = "alpha_code"))
print(predator_comm_names)

# A tibble: 2,337 × 13
    year site  observer date       start_t…¹ end_t…² plot  stake species dista…³
   <dbl> <chr> <chr>    <date>         <dbl>   <dbl> <chr> <chr> <chr>   <chr>  
 1  2003 barr  <NA>     2003-06-08        NA      NA brw1  <NA>  glgu    <NA>   
 2  2003 barr  <NA>     2003-06-08        NA      NA brw1  <NA>  poja    <NA>   
 3  2003 barr  <NA>     2003-06-15        NA      NA brw1  <NA>  glgu    <NA>   
 4  2003 barr  <NA>     2003-06-15        NA      NA brw1  <NA>  poja    <NA>   
 5  2003 barr  <NA>     2003-06-23        NA      NA brw1  <NA>  none    <NA>   
 6  2003 barr  <NA>     2003-06-08        NA      NA brw2  <NA>  glgu    <NA>   
 7  2003 barr  <NA>     2003-06-08        NA      NA brw2  <NA>  poja    <NA>   
 8  2003 barr  <NA>     2003-06-15        NA      NA brw2  <NA>  glgu    <NA>   
 9  2003 barr  <NA>     2003-06-23        NA      NA brw2  <NA>  paja    <NA>   
10  2003 barr  <NA>     2003-06-08        NA      NA brw3  <NA>  glgu    <NA>   
# … with 2,327 more rows, 3 more variables: count <dbl>, comments <chr>,
#   common_name <chr>, and abbreviated variable names ¹​start_time, ²​end_time,
#   ³​distance
…
nest_location_clean <- assign_species_name(nest_data, species) %>% 
    select(year, site, nestID, common_name, lat_corrected, long_corrected) %>% 
    filter(!is.na(common_name))

Warning in assign_species_name(nest_data, species): There are NA values in the
'common_name' column after joining.

eggs_clean <- assign_species_name(egg_measures, species) %>% 
    select(year, site, nestID, common_name, length, width) %>% 
    filter(!is.na(common_name))

predator_clean

# A tibble: 2,069 × 5
    year site  date       common_name      count
   <dbl> <chr> <date>     <chr>            <dbl>
 1  2003 barr  2003-06-08 Glaucous Gull       39
 2  2003 barr  2003-06-08 Pomarine Jaeger      1
 3  2003 barr  2003-06-15 Glaucous Gull        2
 4  2003 barr  2003-06-15 Pomarine Jaeger      1
 5  2003 barr  2003-06-08 Glaucous Gull        1
 6  2003 barr  2003-06-08 Pomarine Jaeger      2
 7  2003 barr  2003-06-15 Glaucous Gull        5
 8  2003 barr  2003-06-23 Parasitic Jaeger     1
 9  2003 barr  2003-06-08 Glaucous Gull        4
10  2003 barr  2003-06-08 Pomarine Jaeger      2
# … with 2,059 more rows

nest_location_clean

# A tibble: 5,573 × 6
    year site  nestID  common_name           lat_corrected long_corrected
   <dbl> <chr> <chr>   <chr>                         <dbl>          <dbl>
 1  2003 barr  dunl300 Dunlin                         71.3          -157.
 2  2003 barr  dunl306 Dunlin                         71.3          -157.
 3  2003 barr  reph307 Red Phalarope                  71.3          -157.
 4  2003 barr  dunl305 Dunlin                         71.3          -157.
 5  2003 barr  pesa510 Pectoral Sandpiper             71.3          -157.
 6  2003 barr  reph310 Red Phalarope                  71.3          -157.
 7  2003 barr  reph311 Red Phalarope                  71.3          -157.
 8  2003 barr  lbdo005 Long-billed Dowitcher          71.3          -157.
 9  2003 barr  reph317 Red Phalarope                  71.3          -157.
10  2003 barr  pesa318 Pectoral Sandpiper             71.3          -157.
# … with 5,563 more rows

eggs_clean

# A tibble: 18,749 × 6
    year site  nestID  common_name   length width
   <dbl> <chr> <chr>   <chr>          <dbl> <dbl>
 1  2003 barr  dunl701 Dunlin          35.7  25.6
 2  2003 barr  dunl701 Dunlin          37.4  25  
 3  2003 barr  dunl701 Dunlin          35.5  25.3
 4  2003 barr  dunl701 Dunlin          35.1  25.3
 5  2003 barr  dunl306 Dunlin          35.9  25.4
 6  2003 barr  dunl306 Dunlin          36.9  25.8
 7  2003 barr  dunl306 Dunlin          36.3  25.5
 8  2003 barr  dunl306 Dunlin          35.1  25.3
 9  2003 barr  reph307 Red Phalarope   30.2  21.5
10  2003 barr  reph307 Red Phalarope   31.3  21.4
# … with 18,739 more rows
